# Goxel 0.8.2
v -2 -3 9 0.560784 0.592157 0.290196
v -1 -3 9 0.560784 0.592157 0.290196
v -1 -3 10 0.560784 0.592157 0.290196
v -2 -3 10 0.560784 0.592157 0.290196
v -1 -2 9 0.560784 0.592157 0.290196
v -2 -2 9 0.560784 0.592157 0.290196
v -2 -2 10 0.560784 0.592157 0.290196
v -1 -2 10 0.560784 0.592157 0.290196
v 0 -3 9 0.560784 0.592157 0.290196
v 1 -3 9 0.560784 0.592157 0.290196
v 1 -3 10 0.560784 0.592157 0.290196
v 0 -3 10 0.560784 0.592157 0.290196
v 1 -2 9 0.560784 0.592157 0.290196
v 0 -2 9 0.560784 0.592157 0.290196
v 0 -2 10 0.560784 0.592157 0.290196
v 1 -2 10 0.560784 0.592157 0.290196
vn 0 -1 0
vn 0 1 0
vn 0 0 -1
vn 0 0 1
vn 1 0 0
vn -1 0 0
f 1//1 2//1 3//1 4//1
f 5//2 6//2 7//2 8//2
f 1//3 6//3 5//3 2//3
f 3//4 8//4 7//4 4//4
f 2//5 5//5 8//5 3//5
f 1//6 4//6 7//6 6//6
f 9//1 10//1 11//1 12//1
f 13//2 14//2 15//2 16//2
f 9//3 14//3 13//3 10//3
f 11//4 16//4 15//4 12//4
f 10//5 13//5 16//5 11//5
f 9//6 12//6 15//6 14//6
