# Goxel 0.8.2
v 0 3 0 1.000000 1.000000 1.000000
v 1 3 0 1.000000 1.000000 1.000000
v 1 3 1 1.000000 1.000000 1.000000
v 0 3 1 1.000000 1.000000 1.000000
v 1 4 0 1.000000 1.000000 1.000000
v 0 4 0 1.000000 1.000000 1.000000
v 0 4 1 1.000000 1.000000 1.000000
v 1 4 1 1.000000 1.000000 1.000000
v 2 3 0 1.000000 1.000000 1.000000
v 2 3 1 1.000000 1.000000 1.000000
v 2 4 0 1.000000 1.000000 1.000000
v 2 4 1 1.000000 1.000000 1.000000
v 3 3 0 1.000000 1.000000 1.000000
v 3 3 1 1.000000 1.000000 1.000000
v 3 4 0 1.000000 1.000000 1.000000
v 3 4 1 1.000000 1.000000 1.000000
v 4 3 0 1.000000 1.000000 1.000000
v 4 3 1 1.000000 1.000000 1.000000
v 4 4 0 1.000000 1.000000 1.000000
v 4 4 1 1.000000 1.000000 1.000000
v 5 3 0 1.000000 1.000000 1.000000
v 5 3 1 1.000000 1.000000 1.000000
v 5 4 0 1.000000 1.000000 1.000000
v 5 4 1 1.000000 1.000000 1.000000
v 4 5 0 1.000000 1.000000 1.000000
v 5 5 0 1.000000 1.000000 1.000000
v 5 5 1 1.000000 1.000000 1.000000
v 4 5 1 1.000000 1.000000 1.000000
v 4 6 0 1.000000 1.000000 1.000000
v 5 6 0 1.000000 1.000000 1.000000
v 5 6 1 1.000000 1.000000 1.000000
v 4 6 1 1.000000 1.000000 1.000000
v 0 6 0 1.000000 1.000000 1.000000
v 1 6 0 1.000000 1.000000 1.000000
v 1 6 1 1.000000 1.000000 1.000000
v 0 6 1 1.000000 1.000000 1.000000
v 0 7 0 1.000000 1.000000 1.000000
v 1 7 0 1.000000 1.000000 1.000000
v 1 7 1 1.000000 1.000000 1.000000
v 0 7 1 1.000000 1.000000 1.000000
v 2 6 0 1.000000 1.000000 1.000000
v 2 6 1 1.000000 1.000000 1.000000
v 2 7 0 1.000000 1.000000 1.000000
v 2 7 1 1.000000 1.000000 1.000000
v 3 6 0 1.000000 1.000000 1.000000
v 3 6 1 1.000000 1.000000 1.000000
v 3 7 0 1.000000 1.000000 1.000000
v 3 7 1 1.000000 1.000000 1.000000
v 4 7 0 1.000000 1.000000 1.000000
v 4 7 1 1.000000 1.000000 1.000000
v 5 7 0 1.000000 1.000000 1.000000
v 5 7 1 1.000000 1.000000 1.000000
v 0 8 0 1.000000 1.000000 1.000000
v 1 8 0 1.000000 1.000000 1.000000
v 1 8 1 1.000000 1.000000 1.000000
v 0 8 1 1.000000 1.000000 1.000000
v 0 9 0 1.000000 1.000000 1.000000
v 1 9 0 1.000000 1.000000 1.000000
v 1 9 1 1.000000 1.000000 1.000000
v 0 9 1 1.000000 1.000000 1.000000
v 1 10 0 1.000000 1.000000 1.000000
v 0 10 0 1.000000 1.000000 1.000000
v 0 10 1 1.000000 1.000000 1.000000
v 1 10 1 1.000000 1.000000 1.000000
v 2 9 0 1.000000 1.000000 1.000000
v 2 9 1 1.000000 1.000000 1.000000
v 2 10 0 1.000000 1.000000 1.000000
v 2 10 1 1.000000 1.000000 1.000000
v 3 9 0 1.000000 1.000000 1.000000
v 3 9 1 1.000000 1.000000 1.000000
v 3 10 0 1.000000 1.000000 1.000000
v 3 10 1 1.000000 1.000000 1.000000
v 4 9 0 1.000000 1.000000 1.000000
v 4 9 1 1.000000 1.000000 1.000000
v 4 10 0 1.000000 1.000000 1.000000
v 4 10 1 1.000000 1.000000 1.000000
v 5 9 0 1.000000 1.000000 1.000000
v 5 9 1 1.000000 1.000000 1.000000
v 5 10 0 1.000000 1.000000 1.000000
v 5 10 1 1.000000 1.000000 1.000000
vn 0 -1 0
vn 0 1 0
vn 0 0 -1
vn 0 0 1
vn -1 0 0
vn 1 0 0
f 1//1 2//1 3//1 4//1
f 5//2 6//2 7//2 8//2
f 1//3 6//3 5//3 2//3
f 3//4 8//4 7//4 4//4
f 1//5 4//5 7//5 6//5
f 2//1 9//1 10//1 3//1
f 11//2 5//2 8//2 12//2
f 2//3 5//3 11//3 9//3
f 10//4 12//4 8//4 3//4
f 9//1 13//1 14//1 10//1
f 15//2 11//2 12//2 16//2
f 9//3 11//3 15//3 13//3
f 14//4 16//4 12//4 10//4
f 13//1 17//1 18//1 14//1
f 19//2 15//2 16//2 20//2
f 13//3 15//3 19//3 17//3
f 18//4 20//4 16//4 14//4
f 17//1 21//1 22//1 18//1
f 17//3 19//3 23//3 21//3
f 22//4 24//4 20//4 18//4
f 21//6 23//6 24//6 22//6
f 19//3 25//3 26//3 23//3
f 24//4 27//4 28//4 20//4
f 23//6 26//6 27//6 24//6
f 19//5 20//5 28//5 25//5
f 25//3 29//3 30//3 26//3
f 27//4 31//4 32//4 28//4
f 26//6 30//6 31//6 27//6
f 25//5 28//5 32//5 29//5
f 33//1 34//1 35//1 36//1
f 33//3 37//3 38//3 34//3
f 35//4 39//4 40//4 36//4
f 33//5 36//5 40//5 37//5
f 34//1 41//1 42//1 35//1
f 43//2 38//2 39//2 44//2
f 34//3 38//3 43//3 41//3
f 42//4 44//4 39//4 35//4
f 41//1 45//1 46//1 42//1
f 47//2 43//2 44//2 48//2
f 41//3 43//3 47//3 45//3
f 46//4 48//4 44//4 42//4
f 45//1 29//1 32//1 46//1
f 49//2 47//2 48//2 50//2
f 45//3 47//3 49//3 29//3
f 32//4 50//4 48//4 46//4
f 51//2 49//2 50//2 52//2
f 29//3 49//3 51//3 30//3
f 31//4 52//4 50//4 32//4
f 30//6 51//6 52//6 31//6
f 37//3 53//3 54//3 38//3
f 39//4 55//4 56//4 40//4
f 38//6 54//6 55//6 39//6
f 37//5 40//5 56//5 53//5
f 53//3 57//3 58//3 54//3
f 55//4 59//4 60//4 56//4
f 54//6 58//6 59//6 55//6
f 53//5 56//5 60//5 57//5
f 61//2 62//2 63//2 64//2
f 57//3 62//3 61//3 58//3
f 59//4 64//4 63//4 60//4
f 57//5 60//5 63//5 62//5
f 58//1 65//1 66//1 59//1
f 67//2 61//2 64//2 68//2
f 58//3 61//3 67//3 65//3
f 66//4 68//4 64//4 59//4
f 65//1 69//1 70//1 66//1
f 71//2 67//2 68//2 72//2
f 65//3 67//3 71//3 69//3
f 70//4 72//4 68//4 66//4
f 69//1 73//1 74//1 70//1
f 75//2 71//2 72//2 76//2
f 69//3 71//3 75//3 73//3
f 74//4 76//4 72//4 70//4
f 73//1 77//1 78//1 74//1
f 79//2 75//2 76//2 80//2
f 73//3 75//3 79//3 77//3
f 78//4 80//4 76//4 74//4
f 77//6 79//6 80//6 78//6
