# Goxel 0.8.2
v 0 3 0 1.000000 1.000000 1.000000
v 1 3 0 1.000000 1.000000 1.000000
v 1 3 1 1.000000 1.000000 1.000000
v 0 3 1 1.000000 1.000000 1.000000
v 0 4 0 1.000000 1.000000 1.000000
v 1 4 0 1.000000 1.000000 1.000000
v 1 4 1 1.000000 1.000000 1.000000
v 0 4 1 1.000000 1.000000 1.000000
v 2 3 0 1.000000 1.000000 1.000000
v 2 3 1 1.000000 1.000000 1.000000
v 2 4 0 1.000000 1.000000 1.000000
v 2 4 1 1.000000 1.000000 1.000000
v 3 3 0 1.000000 1.000000 1.000000
v 3 3 1 1.000000 1.000000 1.000000
v 3 4 0 1.000000 1.000000 1.000000
v 3 4 1 1.000000 1.000000 1.000000
v 0 5 0 1.000000 1.000000 1.000000
v 1 5 0 1.000000 1.000000 1.000000
v 1 5 1 1.000000 1.000000 1.000000
v 0 5 1 1.000000 1.000000 1.000000
v 0 6 0 1.000000 1.000000 1.000000
v 1 6 0 1.000000 1.000000 1.000000
v 1 6 1 1.000000 1.000000 1.000000
v 0 6 1 1.000000 1.000000 1.000000
v 0 7 0 1.000000 1.000000 1.000000
v 1 7 0 1.000000 1.000000 1.000000
v 1 7 1 1.000000 1.000000 1.000000
v 0 7 1 1.000000 1.000000 1.000000
v 0 8 0 1.000000 1.000000 1.000000
v 1 8 0 1.000000 1.000000 1.000000
v 1 8 1 1.000000 1.000000 1.000000
v 0 8 1 1.000000 1.000000 1.000000
v 0 9 0 1.000000 1.000000 1.000000
v 1 9 0 1.000000 1.000000 1.000000
v 1 9 1 1.000000 1.000000 1.000000
v 0 9 1 1.000000 1.000000 1.000000
v 1 10 0 1.000000 1.000000 1.000000
v 0 10 0 1.000000 1.000000 1.000000
v 0 10 1 1.000000 1.000000 1.000000
v 1 10 1 1.000000 1.000000 1.000000
v 2 9 0 1.000000 1.000000 1.000000
v 2 9 1 1.000000 1.000000 1.000000
v 2 10 0 1.000000 1.000000 1.000000
v 2 10 1 1.000000 1.000000 1.000000
v 3 9 0 1.000000 1.000000 1.000000
v 3 9 1 1.000000 1.000000 1.000000
v 3 10 0 1.000000 1.000000 1.000000
v 3 10 1 1.000000 1.000000 1.000000
vn 0 -1 0
vn 0 0 -1
vn 0 0 1
vn -1 0 0
vn 0 1 0
vn 1 0 0
f 1//1 2//1 3//1 4//1
f 1//2 5//2 6//2 2//2
f 3//3 7//3 8//3 4//3
f 1//4 4//4 8//4 5//4
f 2//1 9//1 10//1 3//1
f 11//5 6//5 7//5 12//5
f 2//2 6//2 11//2 9//2
f 10//3 12//3 7//3 3//3
f 9//1 13//1 14//1 10//1
f 15//5 11//5 12//5 16//5
f 9//2 11//2 15//2 13//2
f 14//3 16//3 12//3 10//3
f 13//6 15//6 16//6 14//6
f 5//2 17//2 18//2 6//2
f 7//3 19//3 20//3 8//3
f 6//6 18//6 19//6 7//6
f 5//4 8//4 20//4 17//4
f 17//2 21//2 22//2 18//2
f 19//3 23//3 24//3 20//3
f 18//6 22//6 23//6 19//6
f 17//4 20//4 24//4 21//4
f 21//2 25//2 26//2 22//2
f 23//3 27//3 28//3 24//3
f 22//6 26//6 27//6 23//6
f 21//4 24//4 28//4 25//4
f 25//2 29//2 30//2 26//2
f 27//3 31//3 32//3 28//3
f 26//6 30//6 31//6 27//6
f 25//4 28//4 32//4 29//4
f 29//2 33//2 34//2 30//2
f 31//3 35//3 36//3 32//3
f 30//6 34//6 35//6 31//6
f 29//4 32//4 36//4 33//4
f 37//5 38//5 39//5 40//5
f 33//2 38//2 37//2 34//2
f 35//3 40//3 39//3 36//3
f 33//4 36//4 39//4 38//4
f 34//1 41//1 42//1 35//1
f 43//5 37//5 40//5 44//5
f 34//2 37//2 43//2 41//2
f 42//3 44//3 40//3 35//3
f 41//1 45//1 46//1 42//1
f 47//5 43//5 44//5 48//5
f 41//2 43//2 47//2 45//2
f 46//3 48//3 44//3 42//3
f 45//6 47//6 48//6 46//6
