# Goxel 0.8.2
v 0 3 0 1.000000 1.000000 1.000000
v 1 3 0 1.000000 1.000000 1.000000
v 1 3 1 1.000000 1.000000 1.000000
v 0 3 1 1.000000 1.000000 1.000000
v 1 4 0 1.000000 1.000000 1.000000
v 0 4 0 1.000000 1.000000 1.000000
v 0 4 1 1.000000 1.000000 1.000000
v 1 4 1 1.000000 1.000000 1.000000
v 2 3 0 1.000000 1.000000 1.000000
v 2 3 1 1.000000 1.000000 1.000000
v 2 4 0 1.000000 1.000000 1.000000
v 2 4 1 1.000000 1.000000 1.000000
v 3 3 0 1.000000 1.000000 1.000000
v 3 3 1 1.000000 1.000000 1.000000
v 3 4 0 1.000000 1.000000 1.000000
v 3 4 1 1.000000 1.000000 1.000000
v 2 5 0 1.000000 1.000000 1.000000
v 3 5 0 1.000000 1.000000 1.000000
v 3 5 1 1.000000 1.000000 1.000000
v 2 5 1 1.000000 1.000000 1.000000
v 2 6 0 1.000000 1.000000 1.000000
v 3 6 0 1.000000 1.000000 1.000000
v 3 6 1 1.000000 1.000000 1.000000
v 2 6 1 1.000000 1.000000 1.000000
v 2 7 0 1.000000 1.000000 1.000000
v 3 7 0 1.000000 1.000000 1.000000
v 3 7 1 1.000000 1.000000 1.000000
v 2 7 1 1.000000 1.000000 1.000000
v 2 8 0 1.000000 1.000000 1.000000
v 3 8 0 1.000000 1.000000 1.000000
v 3 8 1 1.000000 1.000000 1.000000
v 2 8 1 1.000000 1.000000 1.000000
v 2 9 0 1.000000 1.000000 1.000000
v 3 9 0 1.000000 1.000000 1.000000
v 3 9 1 1.000000 1.000000 1.000000
v 2 9 1 1.000000 1.000000 1.000000
v 0 9 0 1.000000 1.000000 1.000000
v 1 9 0 1.000000 1.000000 1.000000
v 1 9 1 1.000000 1.000000 1.000000
v 0 9 1 1.000000 1.000000 1.000000
v 1 10 0 1.000000 1.000000 1.000000
v 0 10 0 1.000000 1.000000 1.000000
v 0 10 1 1.000000 1.000000 1.000000
v 1 10 1 1.000000 1.000000 1.000000
v 2 10 0 1.000000 1.000000 1.000000
v 2 10 1 1.000000 1.000000 1.000000
v 3 10 0 1.000000 1.000000 1.000000
v 3 10 1 1.000000 1.000000 1.000000
vn 0 -1 0
vn 0 1 0
vn 0 0 -1
vn 0 0 1
vn -1 0 0
vn 1 0 0
f 1//1 2//1 3//1 4//1
f 5//2 6//2 7//2 8//2
f 1//3 6//3 5//3 2//3
f 3//4 8//4 7//4 4//4
f 1//5 4//5 7//5 6//5
f 2//1 9//1 10//1 3//1
f 11//2 5//2 8//2 12//2
f 2//3 5//3 11//3 9//3
f 10//4 12//4 8//4 3//4
f 9//1 13//1 14//1 10//1
f 9//3 11//3 15//3 13//3
f 14//4 16//4 12//4 10//4
f 13//6 15//6 16//6 14//6
f 11//3 17//3 18//3 15//3
f 16//4 19//4 20//4 12//4
f 15//6 18//6 19//6 16//6
f 11//5 12//5 20//5 17//5
f 17//3 21//3 22//3 18//3
f 19//4 23//4 24//4 20//4
f 18//6 22//6 23//6 19//6
f 17//5 20//5 24//5 21//5
f 21//3 25//3 26//3 22//3
f 23//4 27//4 28//4 24//4
f 22//6 26//6 27//6 23//6
f 21//5 24//5 28//5 25//5
f 25//3 29//3 30//3 26//3
f 27//4 31//4 32//4 28//4
f 26//6 30//6 31//6 27//6
f 25//5 28//5 32//5 29//5
f 29//3 33//3 34//3 30//3
f 31//4 35//4 36//4 32//4
f 30//6 34//6 35//6 31//6
f 29//5 32//5 36//5 33//5
f 37//1 38//1 39//1 40//1
f 41//2 42//2 43//2 44//2
f 37//3 42//3 41//3 38//3
f 39//4 44//4 43//4 40//4
f 37//5 40//5 43//5 42//5
f 38//1 33//1 36//1 39//1
f 45//2 41//2 44//2 46//2
f 38//3 41//3 45//3 33//3
f 36//4 46//4 44//4 39//4
f 47//2 45//2 46//2 48//2
f 33//3 45//3 47//3 34//3
f 35//4 48//4 46//4 36//4
f 34//6 47//6 48//6 35//6
